main_file
…
5 序列效应

5.1 block拆分并汇总

# A tibble: 560 × 8
   SubIndex congruency AffValue Acc.target RT.target con_pos ic_pos block
      <int> <chr>      <chr>         <dbl>     <dbl>   <dbl>  <dbl> <int>
 1        1 Co         neg           0.962      556.   -12.0   4.95     0
 2        1 Co         pos           0.962      561.   -12.0   4.95     0
 3        1 Ic         neg           0.988      587.   -12.0   4.95     0
 4        1 Ic         pos           0.925      575.   -12.0   4.95     0
 5        2 Co         neg           0.988      613.   -88.3 -35.7      0
 6        2 Co         pos           0.988      578.   -88.3 -35.7      0
 7        2 Ic         neg           0.988      628.   -88.3 -35.7      0
 8        2 Ic         pos           1          540.   -88.3 -35.7      0
 9        3 Co         neg           0.862      811.  -122.  -29.0      0
10        3 Co         pos           0.988      782.  -122.  -29.0      0
# … with 550 more rows
…
